PIPELINE_ARCH.srcs/sources_1/new/proyecto.vcd
$date
	Fri Nov 29 09:53:59 2024
$end
$version
	Icarus Verilog
$end
$timescale
	1ps
$end
$scope module aluMUL $end
$var wire 3 ! ALUControlM [2:0] $end
$var wire 32 " RA [31:0] $end
$var wire 32 # RD [31:0] $end
$var wire 32 $ RM [31:0] $end
$var wire 32 % RN [31:0] $end
$var wire 1 & zero $end
$var wire 1 ' neg $end
$var wire 2 ( Flags [1:0] $end
$var wire 64 ) Extra [63:0] $end
$var reg 32 * Result1 [31:0] $end
$var reg 32 + Result2 [31:0] $end
$var reg 64 , Result64 [63:0] $end
$upscope $end
$scope module testbench $end
$var wire 32 - WriteData [31:0] $end
$var wire 1 . MemWrite $end
$var wire 32 / DataAdr [31:0] $end
$var reg 1 0 clk $end
$var reg 1 1 reset $end
$scope module dut $end
$var wire 1 0 clk $end
$var wire 1 1 reset $end
$var wire 32 2 WriteDataM [31:0] $end
$var wire 32 3 ReadDataM [31:0] $end
$var wire 32 4 PCF [31:0] $end
$var wire 1 . MemWriteM $end
$var wire 32 5 InstrF [31:0] $end
$var wire 32 6 DataAdrM [31:0] $end
$scope module arm $end
$var wire 1 0 clk $end
$var wire 1 1 reset $end
$var wire 1 7 sh $end
$var wire 32 8 WriteDataM [31:0] $end
$var wire 1 9 StallF $end
$var wire 1 : StallD $end
$var wire 1 ; RegWriteW $end
$var wire 1 < RegWriteM $end
$var wire 2 = RegSrcD [1:0] $end
$var wire 32 > ReadDataM [31:0] $end
$var wire 1 ? PCWrPendingF $end
$var wire 1 @ PCSrcW $end
$var wire 32 A PCF [31:0] $end
$var wire 1 B MemtoRegW $end
$var wire 1 C MemtoRegE $end
$var wire 1 . MemWriteM $end
$var wire 1 D Match_2E_W $end
$var wire 1 E Match_2E_M $end
$var wire 1 F Match_1E_W $end
$var wire 1 G Match_1E_M $end
$var wire 1 H Match_12D_E $end
$var wire 32 I InstrF [31:0] $end
$var wire 32 J InstrD [31:0] $end
$var wire 2 K ImmSrcD [1:0] $end
$var wire 2 L ForwardBE [1:0] $end
$var wire 2 M ForwardAE [1:0] $end
$var wire 1 N FlushE $end
$var wire 1 O FlushD $end
$var wire 1 P BranchTakenE $end
$var wire 1 Q ALUSrcE $end
$var wire 32 R ALUOutM [31:0] $end
$var wire 4 S ALUFlagsE [3:0] $end
$var wire 5 T ALUControlE [4:0] $end
$scope module c $end
$var wire 1 P BranchTakenE $end
$var wire 1 U MemWriteGatedE $end
$var wire 1 V PCSrcD $end
$var wire 1 W PCSrcGatedE $end
$var wire 1 ? PCWrPendingF $end
$var wire 1 X RegWriteGatedE $end
$var wire 1 0 clk $end
$var wire 1 1 reset $end
$var wire 1 7 shE $end
$var wire 1 Y sh $end
$var wire 1 ; RegWriteW $end
$var wire 1 < RegWriteM $end
$var wire 1 Z RegWriteE $end
$var wire 1 [ RegWriteD $end
$var wire 2 \ RegSrcD [1:0] $end
$var wire 1 @ PCSrcW $end
$var wire 1 ] PCSrcM $end
$var wire 1 ^ PCSrcE $end
$var wire 1 B MemtoRegW $end
$var wire 1 _ MemtoRegM $end
$var wire 1 C MemtoRegE $end
$var wire 1 ` MemtoRegD $end
$var wire 1 . MemWriteM $end
$var wire 1 a MemWriteE $end
$var wire 1 b MemWriteD $end
$var wire 32 c InstrD [31:0] $end
$var wire 2 d ImmSrcD [1:0] $end
$var wire 1 N FlushE $end
$var wire 4 e FlagsNextE [3:0] $end
$var wire 4 f FlagsE [3:0] $end
$var wire 2 g FlagWriteE [1:0] $end
$var wire 1 h CondExE $end
$var wire 4 i CondE [3:0] $end
$var wire 1 j BranchE $end
$var wire 1 k BranchD $end
$var wire 1 Q ALUSrcE $end
$var wire 1 l ALUSrcD $end
$var wire 1 m ALUOpD $end
$var wire 4 n ALUFlagsE [3:0] $end
$var wire 5 o ALUControlE [4:0] $end
$var reg 5 p ALUControlD [4:0] $end
$var reg 2 q FlagWriteD [1:0] $end
$var reg 11 r controlsD [10:0] $end
$scope module Cond $end
$var wire 2 s FlagsWrite [1:0] $end
$var wire 1 t ge $end
$var wire 1 u zero $end
$var wire 1 v overflow $end
$var wire 1 w neg $end
$var wire 1 x carry $end
$var wire 4 y FlagsNext [3:0] $end
$var wire 4 z Flags [3:0] $end
$var wire 4 { Cond [3:0] $end
$var wire 4 | ALUFlags [3:0] $end
$var reg 1 h CondEx $end
$var reg 1 } _sv2v_0 $end
$upscope $end
$scope module condregE $end
$var wire 1 0 clk $end
$var wire 4 ~ d [3:0] $end
$var wire 1 1 reset $end
$var reg 4 !" q [3:0] $end
$upscope $end
$scope module flagsreg $end
$var wire 1 0 clk $end
$var wire 4 "" d [3:0] $end
$var wire 1 1 reset $end
$var reg 4 #" q [3:0] $end
$upscope $end
$scope module flushedregsE $end
$var wire 1 0 clk $end
$var wire 8 $" d [7:0] $end
$var wire 1 1 reset $end
$var wire 1 N clear $end
$var reg 8 %" q [7:0] $end
$upscope $end
$scope module regsE $end
$var wire 1 0 clk $end
$var wire 6 &" d [5:0] $end
$var wire 1 1 reset $end
$var reg 6 '" q [5:0] $end
$upscope $end
$scope module regsM $end
$var wire 1 0 clk $end
$var wire 4 (" d [3:0] $end
$var wire 1 1 reset $end
$var reg 4 )" q [3:0] $end
$upscope $end
$scope module regsW $end
$var wire 1 0 clk $end
$var wire 3 *" d [2:0] $end
$var wire 1 1 reset $end
$var reg 3 +" q [2:0] $end
$upscope $end
$upscope $end
$scope module dp $end
$var wire 5 ," ALUControlE [4:0] $end
$var wire 1 Q ALUSrcE $end
$var wire 1 P BranchTakenE $end
$var wire 2 -" ImmSrcD [1:0] $end
$var wire 1 H Match_12D_E $end
$var wire 1 B MemtoRegW $end
$var wire 32 ." PCPlus8D [31:0] $end
$var wire 1 @ PCSrcW $end
$var wire 2 /" RegSrcD [1:0] $end
$var wire 1 ; RegWriteW $end
$var wire 1 0 clk $end
$var wire 1 1 reset $end
$var wire 1 7 sh $end
$var wire 32 0" res [31:0] $end
$var wire 32 1" rd2E [31:0] $end
$var wire 32 2" rd2D [31:0] $end
$var wire 32 3" rd1E [31:0] $end
$var wire 32 4" rd1D [31:0] $end
$var wire 1 5" point $end
$var wire 8 6" paquete [7:0] $end
$var wire 32 7" WriteDataM [31:0] $end
$var wire 32 8" WriteDataE [31:0] $end
$var wire 4 9" WA3W [3:0] $end
$var wire 4 :" WA3M [3:0] $end
$var wire 4 ;" WA3E [3:0] $end
$var wire 1 9 StallF $end
$var wire 1 : StallD $end
$var wire 32 <" SrcBE [31:0] $end
$var wire 32 =" SrcAE [31:0] $end
$var wire 32 >" SHres [31:0] $end
$var wire 32 ?" ResultW [31:0] $end
$var wire 32 @" ReadDataW [31:0] $end
$var wire 32 A" ReadDataM [31:0] $end
$var wire 4 B" RA2E [3:0] $end
$var wire 4 C" RA2D [3:0] $end
$var wire 4 D" RA1E [3:0] $end
$var wire 4 E" RA1D [3:0] $end
$var wire 32 F" PCnextF [31:0] $end
$var wire 32 G" PCnext1F [31:0] $end
$var wire 32 H" PCPlus4F [31:0] $end
$var wire 32 I" PCF [31:0] $end
$var wire 1 D Match_2E_W $end
$var wire 1 E Match_2E_M $end
$var wire 1 J" Match_2D_E $end
$var wire 1 F Match_1E_W $end
$var wire 1 G Match_1E_M $end
$var wire 1 K" Match_1D_E $end
$var wire 32 L" InstrF [31:0] $end
$var wire 32 M" InstrD [31:0] $end
$var wire 2 N" ForwardBE [1:0] $end
$var wire 2 O" ForwardAE [1:0] $end
$var wire 1 N FlushE $end
$var wire 1 O FlushD $end
$var wire 32 P" ExtImmE [31:0] $end
$var wire 32 Q" ExtImmD [31:0] $end
$var wire 32 R" ALUResultE [31:0] $end
$var wire 32 S" ALUOutW [31:0] $end
$var wire 32 T" ALUOutM [31:0] $end
$var wire 4 U" ALUFlagsE [3:0] $end
$scope module alu $end
$var wire 5 V" ALUControl [4:0] $end
$var wire 1 W" carry $end
$var wire 1 X" overflow $end
$var wire 1 Y" zero $end
$var wire 33 Z" sum [32:0] $end
$var wire 1 [" neg $end
$var wire 32 \" condinvb [31:0] $end
$var wire 32 ]" b [31:0] $end
$var wire 32 ^" a [31:0] $end
$var wire 4 _" Flags [3:0] $end
$var reg 32 `" Result [31:0] $end
$upscope $end
$scope module aluoutreg $end
$var wire 1 0 clk $end
$var wire 1 1 reset $end
$var wire 32 a" d [31:0] $end
$var reg 32 b" q [31:0] $end
$upscope $end
$scope module aluresreg $end
$var wire 1 0 clk $end
$var wire 32 c" d [31:0] $end
$var wire 1 1 reset $end
$var reg 32 d" q [31:0] $end
$upscope $end
$scope module brain $end
$var wire 1 P BTE $end
$var wire 1 0 clk $end
$var wire 1 1 rst $end
$var wire 1 5" point $end
$var reg 2 e" nextstate [1:0] $end
$var reg 2 f" state [1:0] $end
$upscope $end
$scope module branchmux $end
$var wire 32 g" d1 [31:0] $end
$var wire 1 5" s $end
$var wire 32 h" y [31:0] $end
$var wire 32 i" d0 [31:0] $end
$upscope $end
$scope module byp1mux $end
$var wire 32 j" d2 [31:0] $end
$var wire 32 k" y [31:0] $end
$var wire 2 l" s [1:0] $end
$var wire 32 m" d1 [31:0] $end
$var wire 32 n" d0 [31:0] $end
$upscope $end
$scope module byp2mux $end
$var wire 32 o" d2 [31:0] $end
$var wire 32 p" y [31:0] $end
$var wire 2 q" s [1:0] $end
$var wire 32 r" d1 [31:0] $end
$var wire 32 s" d0 [31:0] $end
$upscope $end
$scope module ext $end
$var wire 2 t" ImmSrc [1:0] $end
$var wire 24 u" Instr [23:0] $end
$var reg 32 v" ExtImm [31:0] $end
$upscope $end
$scope module flopshift $end
$var wire 1 0 clk $end
$var wire 8 w" d [7:0] $end
$var wire 1 1 reset $end
$var wire 1 N clear $end
$var reg 8 x" q [7:0] $end
$upscope $end
$scope module immreg $end
$var wire 1 0 clk $end
$var wire 32 y" d [31:0] $end
$var wire 1 1 reset $end
$var wire 1 N clear $end
$var reg 32 z" q [31:0] $end
$upscope $end
$scope module instrreg $end
$var wire 1 0 clk $end
$var wire 1 {" en $end
$var wire 1 1 reset $end
$var wire 32 |" d [31:0] $end
$var wire 1 O clear $end
$var reg 32 }" q [31:0] $end
$upscope $end
$scope module m0 $end
$var wire 1 G y $end
$var wire 4 ~" b [3:0] $end
$var wire 4 !# a [3:0] $end
$upscope $end
$scope module m1 $end
$var wire 1 F y $end
$var wire 4 "# b [3:0] $end
$var wire 4 ## a [3:0] $end
$upscope $end
$scope module m2 $end
$var wire 1 E y $end
$var wire 4 $# b [3:0] $end
$var wire 4 %# a [3:0] $end
$upscope $end
$scope module m3 $end
$var wire 1 D y $end
$var wire 4 &# b [3:0] $end
$var wire 4 '# a [3:0] $end
$upscope $end
$scope module m4a $end
$var wire 1 K" y $end
$var wire 4 (# b [3:0] $end
$var wire 4 )# a [3:0] $end
$upscope $end
$scope module m4b $end
$var wire 1 J" y $end
$var wire 4 *# b [3:0] $end
$var wire 4 +# a [3:0] $end
$upscope $end
$scope module pcadd $end
$var wire 32 ,# b [31:0] $end
$var wire 32 -# y [31:0] $end
$var wire 32 .# a [31:0] $end
$upscope $end
$scope module pcnextmux $end
$var wire 32 /# d0 [31:0] $end
$var wire 1 @ s $end
$var wire 32 0# y [31:0] $end
$var wire 32 1# d1 [31:0] $end
$upscope $end
$scope module pcreg $end
$var wire 1 0 clk $end
$var wire 32 2# d [31:0] $end
$var wire 1 3# en $end
$var wire 1 1 reset $end
$var reg 32 4# q [31:0] $end
$upscope $end
$scope module ra1mux $end
$var wire 4 5# d0 [3:0] $end
$var wire 4 6# d1 [3:0] $end
$var wire 1 7# s $end
$var wire 4 8# y [3:0] $end
$upscope $end
$scope module ra1reg $end
$var wire 1 0 clk $end
$var wire 4 9# d [3:0] $end
$var wire 1 1 reset $end
$var wire 1 N clear $end
$var reg 4 :# q [3:0] $end
$upscope $end
$scope module ra2mux $end
$var wire 4 ;# d0 [3:0] $end
$var wire 4 <# d1 [3:0] $end
$var wire 1 =# s $end
$var wire 4 ># y [3:0] $end
$upscope $end
$scope module ra2reg $end
$var wire 1 0 clk $end
$var wire 4 ?# d [3:0] $end
$var wire 1 1 reset $end
$var wire 1 N clear $end
$var reg 4 @# q [3:0] $end
$upscope $end
$scope module rd1reg $end
$var wire 1 0 clk $end
$var wire 1 1 reset $end
$var wire 32 A# d [31:0] $end
$var wire 1 N clear $end
$var reg 32 B# q [31:0] $end
$upscope $end
$scope module rd2reg $end
$var wire 1 0 clk $end
$var wire 1 1 reset $end
$var wire 32 C# d [31:0] $end
$var wire 1 N clear $end
$var reg 32 D# q [31:0] $end
$upscope $end
$scope module rdreg $end
$var wire 1 0 clk $end
$var wire 1 1 reset $end
$var wire 32 E# d [31:0] $end
$var reg 32 F# q [31:0] $end
$upscope $end
$scope module resmux $end
$var wire 32 G# d0 [31:0] $end
$var wire 32 H# d1 [31:0] $end
$var wire 1 B s $end
$var wire 32 I# y [31:0] $end
$upscope $end
$scope module rf $end
$var wire 1 0 clk $end
$var wire 32 J# r15 [31:0] $end
$var wire 4 K# ra1 [3:0] $end
$var wire 4 L# ra2 [3:0] $end
$var wire 32 M# wd3 [31:0] $end
$var wire 1 ; we3 $end
$var wire 4 N# wa3 [3:0] $end
$var wire 32 O# rd2 [31:0] $end
$var wire 32 P# rd1 [31:0] $end
$upscope $end
$scope module shi $end
$var wire 32 Q# RM [31:0] $end
$var wire 32 R# RS [31:0] $end
$var wire 8 S# paquete [7:0] $end
$var wire 5 T# shamt5 [4:0] $end
$var wire 2 U# sh [1:0] $end
$var wire 1 V# rs $end
$var wire 32 W# extSHAMT5 [31:0] $end
$var reg 32 X# res [31:0] $end
$upscope $end
$scope module shmux $end
$var wire 32 Y# d0 [31:0] $end
$var wire 32 Z# d1 [31:0] $end
$var wire 1 7 s $end
$var wire 32 [# y [31:0] $end
$upscope $end
$scope module srcbmux $end
$var wire 32 \# d0 [31:0] $end
$var wire 32 ]# d1 [31:0] $end
$var wire 1 Q s $end
$var wire 32 ^# y [31:0] $end
$upscope $end
$scope module wa3ereg $end
$var wire 1 0 clk $end
$var wire 4 _# d [3:0] $end
$var wire 1 1 reset $end
$var wire 1 N clear $end
$var reg 4 `# q [3:0] $end
$upscope $end
$scope module wa3mreg $end
$var wire 1 0 clk $end
$var wire 4 a# d [3:0] $end
$var wire 1 1 reset $end
$var reg 4 b# q [3:0] $end
$upscope $end
$scope module wa3wreg $end
$var wire 1 0 clk $end
$var wire 4 c# d [3:0] $end
$var wire 1 1 reset $end
$var reg 4 d# q [3:0] $end
$upscope $end
$scope module wdreg $end
$var wire 1 0 clk $end
$var wire 32 e# d [31:0] $end
$var wire 1 1 reset $end
$var reg 32 f# q [31:0] $end
$upscope $end
$upscope $end
$scope module h $end
$var wire 1 P BranchTakenE $end
$var wire 1 O FlushD $end
$var wire 1 N FlushE $end
$var wire 1 H Match_12D_E $end
$var wire 1 G Match_1E_M $end
$var wire 1 F Match_1E_W $end
$var wire 1 E Match_2E_M $end
$var wire 1 D Match_2E_W $end
$var wire 1 C MemtoRegE $end
$var wire 1 @ PCSrcW $end
$var wire 1 ? PCWrPendingF $end
$var wire 1 < RegWriteM $end
$var wire 1 ; RegWriteW $end
$var wire 1 : StallD $end
$var wire 1 9 StallF $end
$var wire 1 0 clk $end
$var wire 1 g# ldrStallD $end
$var wire 1 1 reset $end
$var reg 2 h# ForwardAE [1:0] $end
$var reg 2 i# ForwardBE [1:0] $end
$upscope $end
$upscope $end
$scope module dmem $end
$var wire 32 j# a [31:0] $end
$var wire 1 0 clk $end
$var wire 32 k# rd [31:0] $end
$var wire 32 l# wd [31:0] $end
$var wire 1 . we $end
$upscope $end
$scope module imem $end
$var wire 32 m# a [31:0] $end
$var wire 32 n# rd [31:0] $end
$upscope $end
$upscope $end
$upscope $end
$enddefinitions $end
#0
$dumpvars
b11100000010011110000000000001111 n#
b0 m#
b0 l#
b11100000010011110000000000001111 k#
b0 j#
b0 i#
b0 h#
0g#
b0 f#
b0 e#
b0 d#
b0 c#
b0 b#
b0 a#
b0 `#
b0 _#
b0 ^#
b0 ]#
b0 \#
b0 [#
b0 Z#
b0 Y#
b0 X#
b0 W#
0V#
b0 U#
b0 T#
b0 S#
b0 R#
b0 Q#
bx P#
bx O#
b0 N#
b0 M#
b0 L#
b0 K#
b100 J#
b0 I#
b0 H#
b0 G#
b0 F#
b11100000010011110000000000001111 E#
b0 D#
bx C#
b0 B#
bx A#
b0 @#
b0 ?#
b0 >#
0=#
b0 <#
b0 ;#
b0 :#
b0 9#
b0 8#
07#
b1111 6#
b0 5#
b0 4#
13#
b100 2#
b0 1#
b100 0#
b100 /#
b0 .#
b100 -#
b100 ,#
b0 +#
b0 *#
b0 )#
b0 (#
b0 '#
b0 &#
b0 %#
b0 $#
b0 ##
b0 "#
b0 !#
b0 ~"
b0 }"
b11100000010011110000000000001111 |"
1{"
b0 z"
b0 y"
b0 x"
b0 w"
b0 v"
b0 u"
b0 t"
b0 s"
b0 r"
b0 q"
b0 p"
b0 o"
b0 n"
b0 m"
b0 l"
b0 k"
b0 j"
b100 i"
b100 h"
b0 g"
b0 f"
b0 e"
b0 d"
b0 c"
b0 b"
b0 a"
b0 `"
b100 _"
b0 ^"
b0 ]"
b0 \"
0["
b0 Z"
1Y"
0X"
0W"
b0 V"
b100 U"
b0 T"
b0 S"
b0 R"
b0 Q"
b0 P"
b0 O"
b0 N"
b0 M"
b11100000010011110000000000001111 L"
1K"
1J"
b0 I"
b100 H"
b100 G"
b100 F"
b0 E"
b0 D"
b0 C"
b0 B"
b11100000010011110000000000001111 A"
b0 @"
b0 ?"
b0 >"
b0 ="
b0 <"
b0 ;"
b0 :"
b0 9"
b0 8"
b0 7"
b0 6"
05"
bx 4"
b0 3"
bx 2"
b0 1"
b0 0"
b0 /"
b100 ."
b0 -"
b0 ,"
b0 +"
b0 *"
b0 )"
b0 ("
b0 '"
b10 &"
b0 %"
b1000 $"
b0 #"
b0 ""
b0 !"
b0 ~
0}
b100 |
b0 {
b0 z
b0 y
0x
0w
0v
0u
1t
b0 s
b10010 r
b0 q
b10 p
b0 o
b100 n
1m
0l
0k
0j
b0 i
0h
b0 g
b0 f
b0 e
b0 d
b0 c
0b
0a
0`
0_
0^
0]
b0 \
1[
0Z
0Y
0X
0W
0V
0U
b0 T
b100 S
b0 R
0Q
0P
0O
0N
b0 M
b0 L
b0 K
b0 J
b11100000010011110000000000001111 I
1H
1G
1F
1E
1D
0C
0B
b0 A
0@
0?
b11100000010011110000000000001111 >
b0 =
0<
0;
0:
09
b0 8
07
b0 6
b11100000010011110000000000001111 5
b0 4
b11100000010011110000000000001111 3
b0 2
11
10
b0 /
0.
b0 -
bx ,
b0 +
b0 *
bz )
b1 (
0'
1&
bz %
bz $
bz #
bz "
bz !
$end
#5000
00
#10000
10
#15000
00
#20000
10
#22000
01
#25000
00
#30000
x["
bx \"
bx00 S
bx00 n
bx00 |
bx00 U"
bx00 _"
xY"
bx R"
bx `"
bx c"
bx g"
bx <"
bx ]"
bx ^#
bx 8"
bx p"
bx \#
bx e#
b1000 2"
b1000 C#
b1000 O#
b1000 4"
b1000 A#
b1000 P#
0H
bx Z"
bx ="
bx ^"
bx k"
b1111 Q"
b1111 v"
b1111 y"
0J"
b1111 C"
b1111 *#
b1111 >#
b1111 ?#
b1111 L#
0K"
b1111 E"
b1111 (#
b1111 8#
b1111 9#
b1111 K#
b1000 F"
b1000 h"
b1000 2#
bx >"
bx s"
bx [#
bx 0"
bx X#
bx Z#
b10011110000000000001111 u"
b1111 ;#
b1111 5#
b1110 ~
b1 &"
b1 p
b11100010100000000010000000000101 5
b11100010100000000010000000000101 I
b11100010100000000010000000000101 L"
b11100010100000000010000000000101 |"
b11100010100000000010000000000101 n#
b1000 G"
b1000 i"
b1000 0#
b10 T
b10 o
b10 ,"
b10 V"
1Z
b11100000010011110000000000001111 @"
b11100000010011110000000000001111 F#
b11100000010011110000000000001111 H#
bx 1"
bx D#
bx Q#
bx Y#
bx 3"
bx n"
bx B#
bx R#
b11100000010011110000000000001111 J
b11100000010011110000000000001111 c
b11100000010011110000000000001111 M"
b11100000010011110000000000001111 }"
b1000 ."
b1000 J#
b1000 H"
b1000 -#
b1000 /#
b100 4
b100 A
b100 I"
b100 .#
b100 4#
b100 m#
b10 '"
b1000 %"
10
#35000
00
#40000
0["
1Y"
b0 R"
b0 `"
b0 c"
b0 g"
b100000000000000000000000000000000 Z"
b11111111111111111111111111110111 \"
0X"
b110 S
b110 n
b110 |
b110 U"
b110 _"
1W"
b1000 <"
b1000 ]"
b1000 ^#
1H
b1000 8"
b1000 p"
b1000 \#
b1000 e#
b10 ("
1X
b1100 F"
b1100 h"
b1100 2#
b101 Q"
b101 v"
b101 y"
b101 C"
b101 *#
b101 >#
b101 ?#
b101 L#
1K"
b0 E"
b0 (#
b0 8#
b0 9#
b0 K#
1l
b1000 ="
b1000 ^"
b1000 k"
b1 T
b1 o
b1 ,"
b1 V"
1h
b11100010100000000011000000001100 5
b11100010100000000011000000001100 I
b11100010100000000011000000001100 L"
b11100010100000000011000000001100 |"
b11100010100000000011000000001100 n#
b1100 G"
b1100 i"
b1100 0#
bx 4"
bx A#
bx P#
bx 2"
bx C#
bx O#
b10 _#
b100000000010000000000101 u"
b10 <#
b101 ;#
b0 5#
b100000 &"
b0 p
b1010010 r
b1000 0"
b1000 X#
b1000 Z#
b1000 >"
b1000 s"
b1000 [#
bx 3
bx >
bx A"
bx E#
bx k#
b1 '"
b1110 i
b1110 {
b1110 !"
b1100 ."
b1100 J#
b1100 H"
b1100 -#
b1100 /#
b1000 4
b1000 A
b1000 I"
b1000 .#
b1000 4#
b1000 m#
b11100010100000000010000000000101 J
b11100010100000000010000000000101 c
b11100010100000000010000000000101 M"
b11100010100000000010000000000101 }"
b1000 3"
b1000 n"
b1000 B#
b1000 R#
b1000 1"
b1000 D#
b1000 Q#
b1000 Y#
b1111 P"
b1111 z"
b1111 ]#
0F
0G
b1111 D"
b1111 ~"
b1111 "#
b1111 :#
0D
0E
b1111 B"
b1111 $#
b1111 &#
b1111 @#
bx /
bx 6
bx R
bx T"
bx a"
bx d"
bx j"
bx o"
bx j#
bx -
bx 2
bx 8
bx 7"
bx f#
bx l#
10
#45000
00
#50000
0X"
0W"
0["
bx 8"
bx p"
bx \#
bx e#
b101 \"
b0 S
b0 n
b0 |
b0 U"
b0 _"
0Y"
b101 R"
b101 `"
b101 c"
b101 g"
b0 ="
b0 ^"
b0 k"
b1100 Q"
b1100 v"
b1100 y"
b1100 C"
b1100 *#
b1100 >#
b1100 ?#
b1100 L#
b10000 F"
b10000 h"
b10000 2#
b101 Z"
b101 <"
b101 ]"
b101 ^#
bx ?"
bx m"
bx r"
bx 1#
bx I#
bx M#
b11100000010011110000000000001111 3
b11100000010011110000000000001111 >
b11100000010011110000000000001111 A"
b11100000010011110000000000001111 E#
b11100000010011110000000000001111 k#
b10 M
b10 O"
b10 l"
b10 h#
0H
bx >"
bx s"
bx [#
bx 0"
bx X#
bx Z#
b11 _#
b100000000011000000001100 u"
b11 <#
b1100 ;#
b11100010010000110111000000001001 5
b11100010010000110111000000001001 I
b11100010010000110111000000001001 L"
b11100010010000110111000000001001 |"
b11100010010000110111000000001001 n#
b10000 G"
b10000 i"
b10000 0#
b10 *"
1<
b0 T
b0 o
b0 ,"
b0 V"
1Q
bx @"
bx F#
bx H#
bx S"
bx b"
bx G#
b1000 -
b1000 2
b1000 8
b1000 7"
b1000 f#
b1000 l#
b0 /
b0 6
b0 R
b0 T"
b0 a"
b0 d"
b0 j"
b0 o"
b0 j#
b101 B"
b101 $#
b101 &#
b101 @#
1F
1G
b0 D"
b0 ~"
b0 "#
b0 :#
0K"
b10 ;"
b10 )#
b10 +#
b10 `#
b10 a#
b101 P"
b101 z"
b101 ]#
bx 1"
bx D#
bx Q#
bx Y#
bx 3"
bx n"
bx B#
bx R#
b11100010100000000011000000001100 J
b11100010100000000011000000001100 c
b11100010100000000011000000001100 M"
b11100010100000000011000000001100 }"
b10000 ."
b10000 J#
b10000 H"
b10000 -#
b10000 /#
b1100 4
b1100 A
b1100 I"
b1100 .#
b1100 4#
b1100 m#
b10 )"
b100000 '"
10
#55000
00
#60000
0X"
0W"
0["
1H
b0 S
b0 n
b0 |
b0 U"
b0 _"
0Y"
b10100 F"
b10100 h"
b10100 2#
b1001 Q"
b1001 v"
b1001 y"
b1001 C"
b1001 *#
b1001 >#
b1001 ?#
b1001 L#
1K"
b11 E"
b11 (#
b11 8#
b11 9#
b11 K#
b1100 \"
b1100 R"
b1100 `"
b1100 c"
b1100 g"
1;
b11100001101000000100011100000010 5
b11100001101000000100011100000010 I
b11100001101000000100011100000010 L"
b11100001101000000100011100000010 |"
b11100001101000000100011100000010 n#
b10100 G"
b10100 i"
b10100 0#
b111 _#
b10000110111000000001001 u"
b111 <#
b1001 ;#
b11 5#
b100001 &"
b1 p
b1100 <"
b1100 ]"
b1100 ^#
b1100 Z"
b0 ="
b0 ^"
b0 k"
b11100010100000000010000000000101 3
b11100010100000000010000000000101 >
b11100010100000000010000000000101 A"
b11100010100000000010000000000101 E#
b11100010100000000010000000000101 k#
b1 M
b1 O"
b1 l"
b1 h#
b0 ?"
b0 m"
b0 r"
b0 1#
b0 I#
b0 M#
b10 +"
b10100 ."
b10100 J#
b10100 H"
b10100 -#
b10100 /#
b10000 4
b10000 A
b10000 I"
b10000 .#
b10000 4#
b10000 m#
b11100010010000110111000000001001 J
b11100010010000110111000000001001 c
b11100010010000110111000000001001 M"
b11100010010000110111000000001001 }"
b1100 P"
b1100 z"
b1100 ]#
b11 ;"
b11 )#
b11 +#
b11 `#
b11 a#
b1100 B"
b1100 $#
b1100 &#
b1100 @#
b101 /
b101 6
b101 R
b101 T"
b101 a"
b101 d"
b101 j"
b101 o"
b101 j#
bx -
bx 2
bx 8
bx 7"
bx f#
bx l#
0G
b10 :"
b10 !#
b10 %#
b10 b#
b10 c#
b0 S"
b0 b"
b0 G#
b11100000010011110000000000001111 @"
b11100000010011110000000000001111 F#
b11100000010011110000000000001111 H#
10
#65000
00
#70000
1W"
b10 S
b10 n
b10 |
b10 U"
b10 _"
0["
b1100 ="
b1100 ^"
b1100 k"
b0 4"
b0 A#
b0 P#
b11 R"
b11 `"
b11 c"
b11 g"
b11111111111111111111111111110110 \"
b10 Q"
b10 v"
b10 y"
b10 C"
b10 *#
b10 >#
b10 ?#
b10 L#
b0 E"
b0 (#
b0 8#
b0 9#
b0 K#
0l
b1001 $"
1Y
b11000 F"
b11000 h"
b11000 2#
b100000000000000000000000000000011 Z"
b101 ?"
b101 m"
b101 r"
b101 1#
b101 I#
b101 M#
b11100010010000110111000000001001 3
b11100010010000110111000000001001 >
b11100010010000110111000000001001 A"
b11100010010000110111000000001001 E#
b11100010010000110111000000001001 k#
b10 M
b10 O"
b10 l"
b10 h#
0H
b1001 <"
b1001 ]"
b1001 ^#
b100 _#
b1110000 w"
b101000000100011100000010 u"
b100 <#
b10 ;#
b0 5#
b100 &"
b100 p
b10011 r
b11100001100001110100000000000010 5
b11100001100001110100000000000010 I
b11100001100001110100000000000010 L"
b11100001100001110100000000000010 |"
b11100001100001110100000000000010 n#
b11000 G"
b11000 i"
b11000 0#
b1 T
b1 o
b1 ,"
b1 V"
b10 9"
b10 ##
b10 '#
b10 N#
b10 d#
b11100010100000000010000000000101 @"
b11100010100000000010000000000101 F#
b11100010100000000010000000000101 H#
b101 S"
b101 b"
b101 G#
1G
b11 :"
b11 !#
b11 %#
b11 b#
b11 c#
b1100 /
b1100 6
b1100 R
b1100 T"
b1100 a"
b1100 d"
b1100 j"
b1100 o"
b1100 j#
b1001 B"
b1001 $#
b1001 &#
b1001 @#
0F
b11 D"
b11 ~"
b11 "#
b11 :#
0K"
b111 ;"
b111 )#
b111 +#
b111 `#
b111 a#
b1001 P"
b1001 z"
b1001 ]#
b11100001101000000100011100000010 J
b11100001101000000100011100000010 c
b11100001101000000100011100000010 M"
b11100001101000000100011100000010 }"
b11000 ."
b11000 J#
b11000 H"
b11000 -#
b11000 /#
b10100 4
b10100 A
b10100 I"
b10100 .#
b10100 4#
b10100 m#
b100001 '"
10
#75000
b101 2"
b101 C#
b101 O#
00
